야놀자 & 여기 어때
…
#감정 분석 점수
yanolja_tk %>%

unnest_tokens(word, 본문) %>%

left_join(knu_dic_df) %>%

mutate(sScore = ifelse(is.na(sScore), 0, sScore)) %>%

arrange(sScore)

## Joining, by = "word"

## # A tidytable: 1,654,358 x 5
##    언론사     URL                                             word  pos   sScore
##    <chr>      <chr>                                           <chr> <chr>  <dbl>
##  1 영남일보   https://www.yeongnam.com/web/view.php?key=2022~ 해가  nng       -2
##  2 영남일보   https://www.yeongnam.com/web/view.php?key=2022~ 해가  nng       -2
##  3 영남일보   https://www.yeongnam.com/web/view.php?key=2022~ 해가  nng       -2
##  4 영남일보   https://www.yeongnam.com/web/view.php?key=2022~ 해가  nng       -2
##  5 영남일보   https://www.yeongnam.com/web/view.php?key=2022~ 해가  nng       -2
##  6 영남일보   https://www.yeongnam.com/web/view.php?key=2022~ 해가  nng       -2
##  7 머니투데이 http://news.moneytoday.co.kr/view/mtview.php?n~ 최악~ nng       -2
##  8 머니투데이 http://news.moneytoday.co.kr/view/mtview.php?n~ 아니~ nng       -2
##  9 머니투데이 http://news.moneytoday.co.kr/view/mtview.php?n~ 최악~ nng       -2
## 10 머니투데이 http://news.moneytoday.co.kr/view/mtview.php?n~ 아니~ nng       -2
## # ... with 1,654,348 more rows
…
#감정 분석 점수
hah_tk %>%

unnest_tokens(word, 본문) %>%

left_join(knu_dic_df) %>%

mutate(sScore = ifelse(is.na(sScore), 0, sScore)) %>%

arrange(sScore)

## Joining, by = "word"

## # A tidytable: 298,654 x 5
##    언론사   URL                                               word  pos   sScore
##    <chr>    <chr>                                             <chr> <chr>  <dbl>
##  1 부산일보 http://www.busan.com/view/busan/view.php?code=20~ 불안~ nng       -2
##  2 부산일보 http://www.busan.com/view/busan/view.php?code=20~ 불안~ nng       -2
##  3 부산일보 http://www.busan.com/view/busan/view.php?code=20~ 불안~ nng       -2
##  4 부산일보 http://www.busan.com/view/busan/view.php?code=20~ 불안~ nng       -2
##  5 부산일보 http://www.busan.com/view/busan/view.php?code=20~ 불안~ nng       -2
##  6 부산일보 http://www.busan.com/view/busan/view.php?code=20~ 불안~ nng       -2
##  7 부산일보 http://www.busan.com/view/busan/view.php?code=20~ 불안~ nng       -2
##  8 부산일보 http://www.busan.com/view/busan/view.php?code=20~ 불안~ nng       -2
##  9 부산일보 http://www.busan.com/view/busan/view.php?code=20~ 불안~ nng       -2
## 10 부산일보 http://www.busan.com/view/busan/view.php?code=20~ 불안~ nng       -2
## # ... with 298,644 more rows
…
